// Jest Snapshot v1, https://goo.gl/fbAQLP

exports[`(Component) Dropdown item renders correctly 1`] = `
ShallowWrapper {
  "length": 1,
  Symbol(enzyme.__root__): [Circular],
  Symbol(enzyme.__unrendered__): <DropdownItem
    iconClass="iconClass"
    onClick={[Function]}
    title="Title"
    url="/url"
    visible={true}
  />,
  Symbol(enzyme.__renderer__): Object {
    "batchedUpdates": [Function],
    "getNode": [Function],
    "render": [Function],
    "simulateEvent": [Function],
    "unmount": [Function],
  },
  Symbol(enzyme.__node__): Object {
    "instance": null,
    "key": undefined,
    "nodeType": "class",
    "props": Object {
      "children": Array [
        <span
          className="iconClass"
        />,
        <span>
           
          Title
        </span>,
      ],
      "className": "nav-link d-block",
      "data-target": ".navbar-collapse.show",
      "data-toggle": "collapse",
      "onClick": [Function],
      "replace": false,
      "title": "Title",
      "to": "/url",
    },
    "ref": null,
    "rendered": Array [
      Object {
        "instance": null,
        "key": undefined,
        "nodeType": "host",
        "props": Object {
          "className": "iconClass",
        },
        "ref": null,
        "rendered": null,
        "type": "span",
      },
      Object {
        "instance": null,
        "key": undefined,
        "nodeType": "host",
        "props": Object {
          "children": Array [
            " ",
            "Title",
          ],
        },
        "ref": null,
        "rendered": Array [
          " ",
          "Title",
        ],
        "type": "span",
      },
    ],
    "type": [Function],
  },
  Symbol(enzyme.__nodes__): Array [
    Object {
      "instance": null,
      "key": undefined,
      "nodeType": "class",
      "props": Object {
        "children": Array [
          <span
            className="iconClass"
          />,
          <span>
             
            Title
          </span>,
        ],
        "className": "nav-link d-block",
        "data-target": ".navbar-collapse.show",
        "data-toggle": "collapse",
        "onClick": [Function],
        "replace": false,
        "title": "Title",
        "to": "/url",
      },
      "ref": null,
      "rendered": Array [
        Object {
          "instance": null,
          "key": undefined,
          "nodeType": "host",
          "props": Object {
            "className": "iconClass",
          },
          "ref": null,
          "rendered": null,
          "type": "span",
        },
        Object {
          "instance": null,
          "key": undefined,
          "nodeType": "host",
          "props": Object {
            "children": Array [
              " ",
              "Title",
            ],
          },
          "ref": null,
          "rendered": Array [
            " ",
            "Title",
          ],
          "type": "span",
        },
      ],
      "type": [Function],
    },
  ],
  Symbol(enzyme.__options__): Object {
    "adapter": ReactSixteenAdapter {
      "options": Object {
        "enableComponentDidUpdateOnSetState": true,
      },
    },
  },
}
`;
