// Jest Snapshot v1, https://goo.gl/fbAQLP

exports[`(Component) Navigation link renders correctly 1`] = `
ShallowWrapper {
  "length": 1,
  Symbol(enzyme.__root__): [Circular],
  Symbol(enzyme.__unrendered__): <NavigationLink
    iconClass="iconClass"
    title="Title"
    url="/url"
  />,
  Symbol(enzyme.__renderer__): Object {
    "batchedUpdates": [Function],
    "getNode": [Function],
    "render": [Function],
    "simulateEvent": [Function],
    "unmount": [Function],
  },
  Symbol(enzyme.__node__): Object {
    "instance": null,
    "key": undefined,
    "nodeType": "host",
    "props": Object {
      "children": <NavLink
        activeClassName="active"
        ariaCurrent="true"
        className="nav-link"
        data-target=".navbar-collapse.show"
        data-toggle="collapse"
        title="Title"
        to="/url"
      >
        <span
          className="iconClass"
        />
        <span
          className="d-md-none d-lg-none d-xl-inline"
        >
           
          Title
        </span>
      </NavLink>,
      "className": "nav-item",
    },
    "ref": null,
    "rendered": Object {
      "instance": null,
      "key": undefined,
      "nodeType": "function",
      "props": Object {
        "activeClassName": "active",
        "ariaCurrent": "true",
        "children": Array [
          <span
            className="iconClass"
          />,
          <span
            className="d-md-none d-lg-none d-xl-inline"
          >
             
            Title
          </span>,
        ],
        "className": "nav-link",
        "data-target": ".navbar-collapse.show",
        "data-toggle": "collapse",
        "title": "Title",
        "to": "/url",
      },
      "ref": null,
      "rendered": Array [
        Object {
          "instance": null,
          "key": undefined,
          "nodeType": "host",
          "props": Object {
            "className": "iconClass",
          },
          "ref": null,
          "rendered": null,
          "type": "span",
        },
        Object {
          "instance": null,
          "key": undefined,
          "nodeType": "host",
          "props": Object {
            "children": Array [
              " ",
              "Title",
            ],
            "className": "d-md-none d-lg-none d-xl-inline",
          },
          "ref": null,
          "rendered": Array [
            " ",
            "Title",
          ],
          "type": "span",
        },
      ],
      "type": [Function],
    },
    "type": "li",
  },
  Symbol(enzyme.__nodes__): Array [
    Object {
      "instance": null,
      "key": undefined,
      "nodeType": "host",
      "props": Object {
        "children": <NavLink
          activeClassName="active"
          ariaCurrent="true"
          className="nav-link"
          data-target=".navbar-collapse.show"
          data-toggle="collapse"
          title="Title"
          to="/url"
        >
          <span
            className="iconClass"
          />
          <span
            className="d-md-none d-lg-none d-xl-inline"
          >
             
            Title
          </span>
        </NavLink>,
        "className": "nav-item",
      },
      "ref": null,
      "rendered": Object {
        "instance": null,
        "key": undefined,
        "nodeType": "function",
        "props": Object {
          "activeClassName": "active",
          "ariaCurrent": "true",
          "children": Array [
            <span
              className="iconClass"
            />,
            <span
              className="d-md-none d-lg-none d-xl-inline"
            >
               
              Title
            </span>,
          ],
          "className": "nav-link",
          "data-target": ".navbar-collapse.show",
          "data-toggle": "collapse",
          "title": "Title",
          "to": "/url",
        },
        "ref": null,
        "rendered": Array [
          Object {
            "instance": null,
            "key": undefined,
            "nodeType": "host",
            "props": Object {
              "className": "iconClass",
            },
            "ref": null,
            "rendered": null,
            "type": "span",
          },
          Object {
            "instance": null,
            "key": undefined,
            "nodeType": "host",
            "props": Object {
              "children": Array [
                " ",
                "Title",
              ],
              "className": "d-md-none d-lg-none d-xl-inline",
            },
            "ref": null,
            "rendered": Array [
              " ",
              "Title",
            ],
            "type": "span",
          },
        ],
        "type": [Function],
      },
      "type": "li",
    },
  ],
  Symbol(enzyme.__options__): Object {
    "adapter": ReactSixteenAdapter {
      "options": Object {
        "enableComponentDidUpdateOnSetState": true,
      },
    },
  },
}
`;
