// Jest Snapshot v1, https://goo.gl/fbAQLP

exports[`(Component) Header renders correctly 1`] = `
ShallowWrapper {
  "length": 1,
  Symbol(enzyme.__root__): [Circular],
  Symbol(enzyme.__unrendered__): <Header />,
  Symbol(enzyme.__renderer__): Object {
    "batchedUpdates": [Function],
    "getNode": [Function],
    "render": [Function],
    "simulateEvent": [Function],
    "unmount": [Function],
  },
  Symbol(enzyme.__node__): Object {
    "instance": null,
    "key": undefined,
    "nodeType": "host",
    "props": Object {
      "children": <header
        className="container socrates-header"
      >
        <div
          className="row"
        >
          <div
            className="col-lg-4 col-sm-12"
          >
            <img
              alt="SoCraTes 2018"
              id="logo"
              src="socrates_logo_2018.png?2tBD1XR"
            />
          </div>
          <div
            className="col-lg-8 col-sm-12"
          >
            <h1
              className="socrates-title"
            >
              SoCraTes 2018
            </h1>
            <h2>
              8th International Conference for Software Craft and Testing
            </h2>
            <h2>
              August 23 - 26, 2018 • Soltau, Germany
            </h2>
          </div>
        </div>
      </header>,
      "className": "jumbotron",
      "id": "header",
    },
    "ref": null,
    "rendered": Object {
      "instance": null,
      "key": undefined,
      "nodeType": "host",
      "props": Object {
        "children": <div
          className="row"
        >
          <div
            className="col-lg-4 col-sm-12"
          >
            <img
              alt="SoCraTes 2018"
              id="logo"
              src="socrates_logo_2018.png?2tBD1XR"
            />
          </div>
          <div
            className="col-lg-8 col-sm-12"
          >
            <h1
              className="socrates-title"
            >
              SoCraTes 2018
            </h1>
            <h2>
              8th International Conference for Software Craft and Testing
            </h2>
            <h2>
              August 23 - 26, 2018 • Soltau, Germany
            </h2>
          </div>
        </div>,
        "className": "container socrates-header",
      },
      "ref": null,
      "rendered": Object {
        "instance": null,
        "key": undefined,
        "nodeType": "host",
        "props": Object {
          "children": Array [
            <div
              className="col-lg-4 col-sm-12"
            >
              <img
                alt="SoCraTes 2018"
                id="logo"
                src="socrates_logo_2018.png?2tBD1XR"
              />
            </div>,
            <div
              className="col-lg-8 col-sm-12"
            >
              <h1
                className="socrates-title"
              >
                SoCraTes 2018
              </h1>
              <h2>
                8th International Conference for Software Craft and Testing
              </h2>
              <h2>
                August 23 - 26, 2018 • Soltau, Germany
              </h2>
            </div>,
          ],
          "className": "row",
        },
        "ref": null,
        "rendered": Array [
          Object {
            "instance": null,
            "key": undefined,
            "nodeType": "host",
            "props": Object {
              "children": <img
                alt="SoCraTes 2018"
                id="logo"
                src="socrates_logo_2018.png?2tBD1XR"
              />,
              "className": "col-lg-4 col-sm-12",
            },
            "ref": null,
            "rendered": Object {
              "instance": null,
              "key": undefined,
              "nodeType": "host",
              "props": Object {
                "alt": "SoCraTes 2018",
                "id": "logo",
                "src": "socrates_logo_2018.png?2tBD1XR",
              },
              "ref": null,
              "rendered": null,
              "type": "img",
            },
            "type": "div",
          },
          Object {
            "instance": null,
            "key": undefined,
            "nodeType": "host",
            "props": Object {
              "children": Array [
                <h1
                  className="socrates-title"
                >
                  SoCraTes 2018
                </h1>,
                <h2>
                  8th International Conference for Software Craft and Testing
                </h2>,
                <h2>
                  August 23 - 26, 2018 • Soltau, Germany
                </h2>,
              ],
              "className": "col-lg-8 col-sm-12",
            },
            "ref": null,
            "rendered": Array [
              Object {
                "instance": null,
                "key": undefined,
                "nodeType": "host",
                "props": Object {
                  "children": "SoCraTes 2018",
                  "className": "socrates-title",
                },
                "ref": null,
                "rendered": "SoCraTes 2018",
                "type": "h1",
              },
              Object {
                "instance": null,
                "key": undefined,
                "nodeType": "host",
                "props": Object {
                  "children": "8th International Conference for Software Craft and Testing",
                },
                "ref": null,
                "rendered": "8th International Conference for Software Craft and Testing",
                "type": "h2",
              },
              Object {
                "instance": null,
                "key": undefined,
                "nodeType": "host",
                "props": Object {
                  "children": "August 23 - 26, 2018 • Soltau, Germany",
                },
                "ref": null,
                "rendered": "August 23 - 26, 2018 • Soltau, Germany",
                "type": "h2",
              },
            ],
            "type": "div",
          },
        ],
        "type": "div",
      },
      "type": "header",
    },
    "type": "div",
  },
  Symbol(enzyme.__nodes__): Array [
    Object {
      "instance": null,
      "key": undefined,
      "nodeType": "host",
      "props": Object {
        "children": <header
          className="container socrates-header"
        >
          <div
            className="row"
          >
            <div
              className="col-lg-4 col-sm-12"
            >
              <img
                alt="SoCraTes 2018"
                id="logo"
                src="socrates_logo_2018.png?2tBD1XR"
              />
            </div>
            <div
              className="col-lg-8 col-sm-12"
            >
              <h1
                className="socrates-title"
              >
                SoCraTes 2018
              </h1>
              <h2>
                8th International Conference for Software Craft and Testing
              </h2>
              <h2>
                August 23 - 26, 2018 • Soltau, Germany
              </h2>
            </div>
          </div>
        </header>,
        "className": "jumbotron",
        "id": "header",
      },
      "ref": null,
      "rendered": Object {
        "instance": null,
        "key": undefined,
        "nodeType": "host",
        "props": Object {
          "children": <div
            className="row"
          >
            <div
              className="col-lg-4 col-sm-12"
            >
              <img
                alt="SoCraTes 2018"
                id="logo"
                src="socrates_logo_2018.png?2tBD1XR"
              />
            </div>
            <div
              className="col-lg-8 col-sm-12"
            >
              <h1
                className="socrates-title"
              >
                SoCraTes 2018
              </h1>
              <h2>
                8th International Conference for Software Craft and Testing
              </h2>
              <h2>
                August 23 - 26, 2018 • Soltau, Germany
              </h2>
            </div>
          </div>,
          "className": "container socrates-header",
        },
        "ref": null,
        "rendered": Object {
          "instance": null,
          "key": undefined,
          "nodeType": "host",
          "props": Object {
            "children": Array [
              <div
                className="col-lg-4 col-sm-12"
              >
                <img
                  alt="SoCraTes 2018"
                  id="logo"
                  src="socrates_logo_2018.png?2tBD1XR"
                />
              </div>,
              <div
                className="col-lg-8 col-sm-12"
              >
                <h1
                  className="socrates-title"
                >
                  SoCraTes 2018
                </h1>
                <h2>
                  8th International Conference for Software Craft and Testing
                </h2>
                <h2>
                  August 23 - 26, 2018 • Soltau, Germany
                </h2>
              </div>,
            ],
            "className": "row",
          },
          "ref": null,
          "rendered": Array [
            Object {
              "instance": null,
              "key": undefined,
              "nodeType": "host",
              "props": Object {
                "children": <img
                  alt="SoCraTes 2018"
                  id="logo"
                  src="socrates_logo_2018.png?2tBD1XR"
                />,
                "className": "col-lg-4 col-sm-12",
              },
              "ref": null,
              "rendered": Object {
                "instance": null,
                "key": undefined,
                "nodeType": "host",
                "props": Object {
                  "alt": "SoCraTes 2018",
                  "id": "logo",
                  "src": "socrates_logo_2018.png?2tBD1XR",
                },
                "ref": null,
                "rendered": null,
                "type": "img",
              },
              "type": "div",
            },
            Object {
              "instance": null,
              "key": undefined,
              "nodeType": "host",
              "props": Object {
                "children": Array [
                  <h1
                    className="socrates-title"
                  >
                    SoCraTes 2018
                  </h1>,
                  <h2>
                    8th International Conference for Software Craft and Testing
                  </h2>,
                  <h2>
                    August 23 - 26, 2018 • Soltau, Germany
                  </h2>,
                ],
                "className": "col-lg-8 col-sm-12",
              },
              "ref": null,
              "rendered": Array [
                Object {
                  "instance": null,
                  "key": undefined,
                  "nodeType": "host",
                  "props": Object {
                    "children": "SoCraTes 2018",
                    "className": "socrates-title",
                  },
                  "ref": null,
                  "rendered": "SoCraTes 2018",
                  "type": "h1",
                },
                Object {
                  "instance": null,
                  "key": undefined,
                  "nodeType": "host",
                  "props": Object {
                    "children": "8th International Conference for Software Craft and Testing",
                  },
                  "ref": null,
                  "rendered": "8th International Conference for Software Craft and Testing",
                  "type": "h2",
                },
                Object {
                  "instance": null,
                  "key": undefined,
                  "nodeType": "host",
                  "props": Object {
                    "children": "August 23 - 26, 2018 • Soltau, Germany",
                  },
                  "ref": null,
                  "rendered": "August 23 - 26, 2018 • Soltau, Germany",
                  "type": "h2",
                },
              ],
              "type": "div",
            },
          ],
          "type": "div",
        },
        "type": "header",
      },
      "type": "div",
    },
  ],
  Symbol(enzyme.__options__): Object {
    "adapter": ReactSixteenAdapter {
      "options": Object {
        "enableComponentDidUpdateOnSetState": true,
      },
    },
  },
}
`;
