// Jest Snapshot v1, https://goo.gl/fbAQLP

exports[`(Component) PartnerConferences renders correctly 1`] = `
ShallowWrapper {
  "length": 1,
  Symbol(enzyme.__root__): [Circular],
  Symbol(enzyme.__unrendered__): <PartnerConferences
    conferences={
      Array [
        Object {
          "description": "1 July 2016, Santiago de Chile",
          "name": "SoCraTes Chile",
          "url": "https://www.socrates-conference.cl/",
        },
        Object {
          "description": "6 - 9 April 2017, Gran Canaria, Spain",
          "name": "SoCraTes Canaries",
          "url": "https://www.socracan.com",
        },
      ]
    }
  />,
  Symbol(enzyme.__renderer__): Object {
    "batchedUpdates": [Function],
    "getNode": [Function],
    "render": [Function],
    "simulateEvent": [Function],
    "unmount": [Function],
  },
  Symbol(enzyme.__node__): Object {
    "instance": null,
    "key": undefined,
    "nodeType": "host",
    "props": Object {
      "children": Array [
        <div
          className="row"
        >
          <div
            className="col-sm-12"
          >
            <hr />
            <h4>
              Partner Conferences
            </h4>
          </div>
        </div>,
        <div
          className="row"
        >
          <div
            className="conference col-sm-6"
          >
            <PartnerConferenceComponent
              description="1 July 2016, Santiago de Chile"
              name="SoCraTes Chile"
              url="https://www.socrates-conference.cl/"
            />
          </div>
          <div
            className="conference col-sm-6"
          >
            <PartnerConferenceComponent
              description="6 - 9 April 2017, Gran Canaria, Spain"
              name="SoCraTes Canaries"
              url="https://www.socracan.com"
            />
          </div>
        </div>,
      ],
      "className": "conferences",
      "id": "conferences",
    },
    "ref": null,
    "rendered": Array [
      Object {
        "instance": null,
        "key": undefined,
        "nodeType": "host",
        "props": Object {
          "children": <div
            className="col-sm-12"
          >
            <hr />
            <h4>
              Partner Conferences
            </h4>
          </div>,
          "className": "row",
        },
        "ref": null,
        "rendered": Object {
          "instance": null,
          "key": undefined,
          "nodeType": "host",
          "props": Object {
            "children": Array [
              <hr />,
              <h4>
                Partner Conferences
              </h4>,
            ],
            "className": "col-sm-12",
          },
          "ref": null,
          "rendered": Array [
            Object {
              "instance": null,
              "key": undefined,
              "nodeType": "host",
              "props": Object {},
              "ref": null,
              "rendered": null,
              "type": "hr",
            },
            Object {
              "instance": null,
              "key": undefined,
              "nodeType": "host",
              "props": Object {
                "children": "Partner Conferences",
              },
              "ref": null,
              "rendered": "Partner Conferences",
              "type": "h4",
            },
          ],
          "type": "div",
        },
        "type": "div",
      },
      Object {
        "instance": null,
        "key": undefined,
        "nodeType": "host",
        "props": Object {
          "children": Array [
            <div
              className="conference col-sm-6"
            >
              <PartnerConferenceComponent
                description="1 July 2016, Santiago de Chile"
                name="SoCraTes Chile"
                url="https://www.socrates-conference.cl/"
              />
            </div>,
            <div
              className="conference col-sm-6"
            >
              <PartnerConferenceComponent
                description="6 - 9 April 2017, Gran Canaria, Spain"
                name="SoCraTes Canaries"
                url="https://www.socracan.com"
              />
            </div>,
          ],
          "className": "row",
        },
        "ref": null,
        "rendered": Array [
          Object {
            "instance": null,
            "key": "SoCraTes Chile",
            "nodeType": "host",
            "props": Object {
              "children": <PartnerConferenceComponent
                description="1 July 2016, Santiago de Chile"
                name="SoCraTes Chile"
                url="https://www.socrates-conference.cl/"
              />,
              "className": "conference col-sm-6",
            },
            "ref": null,
            "rendered": Object {
              "instance": null,
              "key": undefined,
              "nodeType": "function",
              "props": Object {
                "description": "1 July 2016, Santiago de Chile",
                "name": "SoCraTes Chile",
                "url": "https://www.socrates-conference.cl/",
              },
              "ref": null,
              "rendered": null,
              "type": [Function],
            },
            "type": "div",
          },
          Object {
            "instance": null,
            "key": "SoCraTes Canaries",
            "nodeType": "host",
            "props": Object {
              "children": <PartnerConferenceComponent
                description="6 - 9 April 2017, Gran Canaria, Spain"
                name="SoCraTes Canaries"
                url="https://www.socracan.com"
              />,
              "className": "conference col-sm-6",
            },
            "ref": null,
            "rendered": Object {
              "instance": null,
              "key": undefined,
              "nodeType": "function",
              "props": Object {
                "description": "6 - 9 April 2017, Gran Canaria, Spain",
                "name": "SoCraTes Canaries",
                "url": "https://www.socracan.com",
              },
              "ref": null,
              "rendered": null,
              "type": [Function],
            },
            "type": "div",
          },
        ],
        "type": "div",
      },
    ],
    "type": "div",
  },
  Symbol(enzyme.__nodes__): Array [
    Object {
      "instance": null,
      "key": undefined,
      "nodeType": "host",
      "props": Object {
        "children": Array [
          <div
            className="row"
          >
            <div
              className="col-sm-12"
            >
              <hr />
              <h4>
                Partner Conferences
              </h4>
            </div>
          </div>,
          <div
            className="row"
          >
            <div
              className="conference col-sm-6"
            >
              <PartnerConferenceComponent
                description="1 July 2016, Santiago de Chile"
                name="SoCraTes Chile"
                url="https://www.socrates-conference.cl/"
              />
            </div>
            <div
              className="conference col-sm-6"
            >
              <PartnerConferenceComponent
                description="6 - 9 April 2017, Gran Canaria, Spain"
                name="SoCraTes Canaries"
                url="https://www.socracan.com"
              />
            </div>
          </div>,
        ],
        "className": "conferences",
        "id": "conferences",
      },
      "ref": null,
      "rendered": Array [
        Object {
          "instance": null,
          "key": undefined,
          "nodeType": "host",
          "props": Object {
            "children": <div
              className="col-sm-12"
            >
              <hr />
              <h4>
                Partner Conferences
              </h4>
            </div>,
            "className": "row",
          },
          "ref": null,
          "rendered": Object {
            "instance": null,
            "key": undefined,
            "nodeType": "host",
            "props": Object {
              "children": Array [
                <hr />,
                <h4>
                  Partner Conferences
                </h4>,
              ],
              "className": "col-sm-12",
            },
            "ref": null,
            "rendered": Array [
              Object {
                "instance": null,
                "key": undefined,
                "nodeType": "host",
                "props": Object {},
                "ref": null,
                "rendered": null,
                "type": "hr",
              },
              Object {
                "instance": null,
                "key": undefined,
                "nodeType": "host",
                "props": Object {
                  "children": "Partner Conferences",
                },
                "ref": null,
                "rendered": "Partner Conferences",
                "type": "h4",
              },
            ],
            "type": "div",
          },
          "type": "div",
        },
        Object {
          "instance": null,
          "key": undefined,
          "nodeType": "host",
          "props": Object {
            "children": Array [
              <div
                className="conference col-sm-6"
              >
                <PartnerConferenceComponent
                  description="1 July 2016, Santiago de Chile"
                  name="SoCraTes Chile"
                  url="https://www.socrates-conference.cl/"
                />
              </div>,
              <div
                className="conference col-sm-6"
              >
                <PartnerConferenceComponent
                  description="6 - 9 April 2017, Gran Canaria, Spain"
                  name="SoCraTes Canaries"
                  url="https://www.socracan.com"
                />
              </div>,
            ],
            "className": "row",
          },
          "ref": null,
          "rendered": Array [
            Object {
              "instance": null,
              "key": "SoCraTes Chile",
              "nodeType": "host",
              "props": Object {
                "children": <PartnerConferenceComponent
                  description="1 July 2016, Santiago de Chile"
                  name="SoCraTes Chile"
                  url="https://www.socrates-conference.cl/"
                />,
                "className": "conference col-sm-6",
              },
              "ref": null,
              "rendered": Object {
                "instance": null,
                "key": undefined,
                "nodeType": "function",
                "props": Object {
                  "description": "1 July 2016, Santiago de Chile",
                  "name": "SoCraTes Chile",
                  "url": "https://www.socrates-conference.cl/",
                },
                "ref": null,
                "rendered": null,
                "type": [Function],
              },
              "type": "div",
            },
            Object {
              "instance": null,
              "key": "SoCraTes Canaries",
              "nodeType": "host",
              "props": Object {
                "children": <PartnerConferenceComponent
                  description="6 - 9 April 2017, Gran Canaria, Spain"
                  name="SoCraTes Canaries"
                  url="https://www.socracan.com"
                />,
                "className": "conference col-sm-6",
              },
              "ref": null,
              "rendered": Object {
                "instance": null,
                "key": undefined,
                "nodeType": "function",
                "props": Object {
                  "description": "6 - 9 April 2017, Gran Canaria, Spain",
                  "name": "SoCraTes Canaries",
                  "url": "https://www.socracan.com",
                },
                "ref": null,
                "rendered": null,
                "type": [Function],
              },
              "type": "div",
            },
          ],
          "type": "div",
        },
      ],
      "type": "div",
    },
  ],
  Symbol(enzyme.__options__): Object {
    "adapter": ReactSixteenAdapter {
      "options": Object {
        "enableComponentDidUpdateOnSetState": true,
      },
    },
  },
}
`;
